Election Data by State for the 2016 Presidential Elections
…
longer <- longer%>%na.omit()

The data was already tidy, so I pivoted a column wider to prove that the information does not make as much sense presented in this way and that its current, tidy version is most readable. After making it wider, it split the TrumpWin into two columns, one for winning (1) and one for losing (0). This makes it more difficult to read since there are so many resulting N/A values. I then pivoted it back longer, which caused the ‘Total’ column to double up with N/A values, so I removed the N/As with na.omit() in order to return the dataset to its tidy, original setup.

fulldat <- fulldat %>% select(-c("X","Abr"))
fulldat <- fulldat %>% mutate(PercentWhite=(White/Total)*100)

majoritywhite <- fulldat %>% select(c("State", "Dem.Rep", "TrumpWin", "PercentWhite")) %>% group_by(State) %>% filter(PercentWhite>=50) %>% arrange(desc(PercentWhite))
majoritywhite

## # A tibble: 49 x 4
## # Groups:   State [49]
##    State         Dem.Rep TrumpWin PercentWhite
##    <chr>           <int>    <int>        <dbl>
##  1 Vermont            22        0         95.7
##  2 Maine              -4        0         95.6
##  3 New Hampshire      -9        0         94.8
##  4 West Virginia      -6        1         94.3
##  5 Idaho             -30        1         94.2
##  6 Wyoming           -32        1         93.9
##  7 Iowa               -3        1         93.2
##  8 Utah              -30        1         92.2
##  9 North Dakota      -21        1         90.6
## 10 Nebraska           -9        1         90.3
## # … with 39 more rows
…
